%YAML 1.1
%TAG !u! tag:unity3d.com,2011:
--- !u!74 &7400000
AnimationClip:
  m_ObjectHideFlags: 0
  m_CorrespondingSourceObject: {fileID: 0}
  m_PrefabInstance: {fileID: 0}
  m_PrefabAsset: {fileID: 0}
  m_Name: HomeAnim
  serializedVersion: 6
  m_Legacy: 0
  m_Compressed: 0
  m_UseHighQualityCurve: 1
  m_RotationCurves: []
  m_CompressedRotationCurves: []
  m_EulerCurves: []
  m_PositionCurves: []
  m_ScaleCurves: []
  m_FloatCurves: []
  m_PPtrCurves:
  - curve:
    - time: 0
      value: {fileID: 21300000, guid: 43dce3e161dd5304791baa6e42548fbd, type: 3}
    - time: 0.04
      value: {fileID: 21300000, guid: 18a1c74ef8bb3f5458bc7db81520a1c3, type: 3}
    - time: 0.08
      value: {fileID: 21300000, guid: f1bd3c5450f2d46499cfa54c940471df, type: 3}
    - time: 0.12
      value: {fileID: 21300000, guid: 635169f5904a35f40b75ac35aea95f42, type: 3}
    - time: 0.16
      value: {fileID: 21300000, guid: 115ce6085704ffc4ea7fdd793567acc6, type: 3}
    - time: 0.2
      value: {fileID: 21300000, guid: 24e2faf8e030263468597ed88b692747, type: 3}
    - time: 0.24
      value: {fileID: 21300000, guid: 0c9cb2f4cfade134aa79f8c7d5bb3930, type: 3}
    - time: 0.28
      value: {fileID: 21300000, guid: f785b172d529564428c6ab21dabc6cca, type: 3}
    - time: 0.32
      value: {fileID: 21300000, guid: 9ffc24e39b1d61c4ea9604556bf17e07, type: 3}
    - time: 0.36
      value: {fileID: 21300000, guid: 7af7b2b0d15df8f48826b9e4c15b9f16, type: 3}
    - time: 0.4
      value: {fileID: 21300000, guid: f904f421e9af6de4cbe3cb19d38758b3, type: 3}
    - time: 0.44
      value: {fileID: 21300000, guid: 29c0b8f6b4309374094a967bfffcf121, type: 3}
    - time: 0.48
      value: {fileID: 21300000, guid: 15446c824edebd0448f53874b326c303, type: 3}
    - time: 0.52
      value: {fileID: 21300000, guid: 191a971e067e4924d8ca78816bb59839, type: 3}
    - time: 0.56
      value: {fileID: 21300000, guid: d7a76138ed3ac504da5b02045caac0d3, type: 3}
    - time: 0.6
      value: {fileID: 21300000, guid: ba0573cdb77943747be5d046507b0354, type: 3}
    - time: 0.64
      value: {fileID: 21300000, guid: 419ce812c1016734b8a812707a409e55, type: 3}
    - time: 0.68
      value: {fileID: 21300000, guid: c5034ff402fd60644b189dc4c42ac0e2, type: 3}
    - time: 0.72
      value: {fileID: 21300000, guid: 90ba59fba8976dc41a239ec9d8f4ed0e, type: 3}
    - time: 0.76
      value: {fileID: 21300000, guid: 29dc2af8406123241b8614e42c7da42d, type: 3}
    - time: 0.8
      value: {fileID: 21300000, guid: 742dd1480e5399348a8e944757676159, type: 3}
    - time: 0.84
      value: {fileID: 21300000, guid: 05090ca8bd339214f9e800abf72bad72, type: 3}
    - time: 0.88
      value: {fileID: 21300000, guid: e7f9c2e0828588e4b8ee6a0af2089b70, type: 3}
    - time: 0.92
      value: {fileID: 21300000, guid: 7612b01436c8c914189adfb09d0fdfe5, type: 3}
    - time: 0.96
      value: {fileID: 21300000, guid: d5a114fb669e87b4fa6ab749acc4538e, type: 3}
    - time: 1
      value: {fileID: 21300000, guid: def38810abcda414ca38c42b3046a954, type: 3}
    - time: 1.04
      value: {fileID: 21300000, guid: cfd35542a9aa9df418de54ad45200377, type: 3}
    - time: 1.08
      value: {fileID: 21300000, guid: affdc8b4d5d3b6c43be38129e3913ed0, type: 3}
    - time: 1.12
      value: {fileID: 21300000, guid: c490746c94fd7b04db8170948445da61, type: 3}
    - time: 1.16
      value: {fileID: 21300000, guid: 398d6e9f1b6395d43819229cc59806f7, type: 3}
    - time: 1.2
      value: {fileID: 21300000, guid: 290287f146606e04d9b518073087c602, type: 3}
    - time: 1.24
      value: {fileID: 21300000, guid: 3acc36120ac84eb4f923ed36a03f9a2a, type: 3}
    - time: 1.28
      value: {fileID: 21300000, guid: 1e84ae0cd85eb0a43b59dded237b01b3, type: 3}
    - time: 1.32
      value: {fileID: 21300000, guid: f7d080c298ecc494e9fe59d5c03c8768, type: 3}
    - time: 1.36
      value: {fileID: 21300000, guid: c679fe6a6a419964aae82318e4fd6759, type: 3}
    - time: 1.4
      value: {fileID: 21300000, guid: 70b52aeff3fcf5c4897a96aa31d4fbfb, type: 3}
    - time: 1.44
      value: {fileID: 21300000, guid: ebfaad8c93bb8ec4cb091b00ffc748d3, type: 3}
    - time: 1.48
      value: {fileID: 21300000, guid: d2cde85b35e3f8440a0058622b230941, type: 3}
    - time: 1.52
      value: {fileID: 21300000, guid: 259b63023ca3ffe4a892f03324fe9ce1, type: 3}
    - time: 1.56
      value: {fileID: 21300000, guid: f70269f5d8a5f1e4980968733d1ec4ef, type: 3}
    - time: 1.6
      value: {fileID: 21300000, guid: 99787ffc7adaad242a72fc83ac37bd96, type: 3}
    - time: 1.64
      value: {fileID: 21300000, guid: 89bfcbd775883ac4ab12477117939a77, type: 3}
    - time: 1.68
      value: {fileID: 21300000, guid: 7ca4c4c53323ff540992853bd7c8aef2, type: 3}
    - time: 1.72
      value: {fileID: 21300000, guid: 5b6807331276c5647b90e397197a179f, type: 3}
    - time: 1.76
      value: {fileID: 21300000, guid: 0d17e2f598140cc40ace3ea93087ddd6, type: 3}
    - time: 1.8
      value: {fileID: 21300000, guid: 5b4d8269d2ab9de49a46807dae695555, type: 3}
    - time: 1.84
      value: {fileID: 21300000, guid: 242115652d3072c418e4b46f9c7b690c, type: 3}
    - time: 1.88
      value: {fileID: 21300000, guid: 291936b507c04244ab7b1042f1944c7d, type: 3}
    - time: 1.92
      value: {fileID: 21300000, guid: 6370056f1f8c3694d8e5f207c5c7880b, type: 3}
    - time: 1.96
      value: {fileID: 21300000, guid: 200a4a1b8fbcf2341bb7cb971584d1c4, type: 3}
    - time: 2
      value: {fileID: 21300000, guid: 0caeaab135229104598efeac17ebc4c3, type: 3}
    - time: 2.04
      value: {fileID: 21300000, guid: 5bde1dd2be3f1144783ac35679239bec, type: 3}
    - time: 2.08
      value: {fileID: 21300000, guid: 6a7968bf0b0e1394a9bf403f92329481, type: 3}
    - time: 2.12
      value: {fileID: 21300000, guid: b62d40eac9868c44aae96f60f5df3591, type: 3}
    - time: 2.16
      value: {fileID: 21300000, guid: 9a6f67dceeb424e48858d2055ab2fd59, type: 3}
    - time: 2.2
      value: {fileID: 21300000, guid: 6ddce02429a04b2448dec147ee6937b0, type: 3}
    - time: 2.24
      value: {fileID: 21300000, guid: 5e3d6568e45dbcf46b2e54f22f77d2f6, type: 3}
    - time: 2.28
      value: {fileID: 21300000, guid: e6eec03392bc18745bb4d9fd3c7a3a86, type: 3}
    - time: 2.32
      value: {fileID: 21300000, guid: 5db1d5b447ab29645bb75c8811aaf7ed, type: 3}
    - time: 2.36
      value: {fileID: 21300000, guid: a7cb2fec43aad4a4c86cad9e369cbae9, type: 3}
    attribute: m_Sprite
    path: 
    classID: 114
    script: {fileID: 11500000, guid: fe87c0e1cc204ed48ad3b37840f39efc, type: 3}
  m_SampleRate: 25
  m_WrapMode: 0
  m_Bounds:
    m_Center: {x: 0, y: 0, z: 0}
    m_Extent: {x: 0, y: 0, z: 0}
  m_ClipBindingConstant:
    genericBindings:
    - serializedVersion: 2
      path: 0
      attribute: 2015549526
      script: {fileID: 11500000, guid: fe87c0e1cc204ed48ad3b37840f39efc, type: 3}
      typeID: 114
      customType: 0
      isPPtrCurve: 1
    pptrCurveMapping:
    - {fileID: 21300000, guid: 43dce3e161dd5304791baa6e42548fbd, type: 3}
    - {fileID: 21300000, guid: 18a1c74ef8bb3f5458bc7db81520a1c3, type: 3}
    - {fileID: 21300000, guid: f1bd3c5450f2d46499cfa54c940471df, type: 3}
    - {fileID: 21300000, guid: 635169f5904a35f40b75ac35aea95f42, type: 3}
    - {fileID: 21300000, guid: 115ce6085704ffc4ea7fdd793567acc6, type: 3}
    - {fileID: 21300000, guid: 24e2faf8e030263468597ed88b692747, type: 3}
    - {fileID: 21300000, guid: 0c9cb2f4cfade134aa79f8c7d5bb3930, type: 3}
    - {fileID: 21300000, guid: f785b172d529564428c6ab21dabc6cca, type: 3}
    - {fileID: 21300000, guid: 9ffc24e39b1d61c4ea9604556bf17e07, type: 3}
    - {fileID: 21300000, guid: 7af7b2b0d15df8f48826b9e4c15b9f16, type: 3}
    - {fileID: 21300000, guid: f904f421e9af6de4cbe3cb19d38758b3, type: 3}
    - {fileID: 21300000, guid: 29c0b8f6b4309374094a967bfffcf121, type: 3}
    - {fileID: 21300000, guid: 15446c824edebd0448f53874b326c303, type: 3}
    - {fileID: 21300000, guid: 191a971e067e4924d8ca78816bb59839, type: 3}
    - {fileID: 21300000, guid: d7a76138ed3ac504da5b02045caac0d3, type: 3}
    - {fileID: 21300000, guid: ba0573cdb77943747be5d046507b0354, type: 3}
    - {fileID: 21300000, guid: 419ce812c1016734b8a812707a409e55, type: 3}
    - {fileID: 21300000, guid: c5034ff402fd60644b189dc4c42ac0e2, type: 3}
    - {fileID: 21300000, guid: 90ba59fba8976dc41a239ec9d8f4ed0e, type: 3}
    - {fileID: 21300000, guid: 29dc2af8406123241b8614e42c7da42d, type: 3}
    - {fileID: 21300000, guid: 742dd1480e5399348a8e944757676159, type: 3}
    - {fileID: 21300000, guid: 05090ca8bd339214f9e800abf72bad72, type: 3}
    - {fileID: 21300000, guid: e7f9c2e0828588e4b8ee6a0af2089b70, type: 3}
    - {fileID: 21300000, guid: 7612b01436c8c914189adfb09d0fdfe5, type: 3}
    - {fileID: 21300000, guid: d5a114fb669e87b4fa6ab749acc4538e, type: 3}
    - {fileID: 21300000, guid: def38810abcda414ca38c42b3046a954, type: 3}
    - {fileID: 21300000, guid: cfd35542a9aa9df418de54ad45200377, type: 3}
    - {fileID: 21300000, guid: affdc8b4d5d3b6c43be38129e3913ed0, type: 3}
    - {fileID: 21300000, guid: c490746c94fd7b04db8170948445da61, type: 3}
    - {fileID: 21300000, guid: 398d6e9f1b6395d43819229cc59806f7, type: 3}
    - {fileID: 21300000, guid: 290287f146606e04d9b518073087c602, type: 3}
    - {fileID: 21300000, guid: 3acc36120ac84eb4f923ed36a03f9a2a, type: 3}
    - {fileID: 21300000, guid: 1e84ae0cd85eb0a43b59dded237b01b3, type: 3}
    - {fileID: 21300000, guid: f7d080c298ecc494e9fe59d5c03c8768, type: 3}
    - {fileID: 21300000, guid: c679fe6a6a419964aae82318e4fd6759, type: 3}
    - {fileID: 21300000, guid: 70b52aeff3fcf5c4897a96aa31d4fbfb, type: 3}
    - {fileID: 21300000, guid: ebfaad8c93bb8ec4cb091b00ffc748d3, type: 3}
    - {fileID: 21300000, guid: d2cde85b35e3f8440a0058622b230941, type: 3}
    - {fileID: 21300000, guid: 259b63023ca3ffe4a892f03324fe9ce1, type: 3}
    - {fileID: 21300000, guid: f70269f5d8a5f1e4980968733d1ec4ef, type: 3}
    - {fileID: 21300000, guid: 99787ffc7adaad242a72fc83ac37bd96, type: 3}
    - {fileID: 21300000, guid: 89bfcbd775883ac4ab12477117939a77, type: 3}
    - {fileID: 21300000, guid: 7ca4c4c53323ff540992853bd7c8aef2, type: 3}
    - {fileID: 21300000, guid: 5b6807331276c5647b90e397197a179f, type: 3}
    - {fileID: 21300000, guid: 0d17e2f598140cc40ace3ea93087ddd6, type: 3}
    - {fileID: 21300000, guid: 5b4d8269d2ab9de49a46807dae695555, type: 3}
    - {fileID: 21300000, guid: 242115652d3072c418e4b46f9c7b690c, type: 3}
    - {fileID: 21300000, guid: 291936b507c04244ab7b1042f1944c7d, type: 3}
    - {fileID: 21300000, guid: 6370056f1f8c3694d8e5f207c5c7880b, type: 3}
    - {fileID: 21300000, guid: 200a4a1b8fbcf2341bb7cb971584d1c4, type: 3}
    - {fileID: 21300000, guid: 0caeaab135229104598efeac17ebc4c3, type: 3}
    - {fileID: 21300000, guid: 5bde1dd2be3f1144783ac35679239bec, type: 3}
    - {fileID: 21300000, guid: 6a7968bf0b0e1394a9bf403f92329481, type: 3}
    - {fileID: 21300000, guid: b62d40eac9868c44aae96f60f5df3591, type: 3}
    - {fileID: 21300000, guid: 9a6f67dceeb424e48858d2055ab2fd59, type: 3}
    - {fileID: 21300000, guid: 6ddce02429a04b2448dec147ee6937b0, type: 3}
    - {fileID: 21300000, guid: 5e3d6568e45dbcf46b2e54f22f77d2f6, type: 3}
    - {fileID: 21300000, guid: e6eec03392bc18745bb4d9fd3c7a3a86, type: 3}
    - {fileID: 21300000, guid: 5db1d5b447ab29645bb75c8811aaf7ed, type: 3}
    - {fileID: 21300000, guid: a7cb2fec43aad4a4c86cad9e369cbae9, type: 3}
  m_AnimationClipSettings:
    serializedVersion: 2
    m_AdditiveReferencePoseClip: {fileID: 0}
    m_AdditiveReferencePoseTime: 0
    m_StartTime: 0
    m_StopTime: 2.3999999
    m_OrientationOffsetY: 0
    m_Level: 0
    m_CycleOffset: 0
    m_HasAdditiveReferencePose: 0
    m_LoopTime: 1
    m_LoopBlend: 0
    m_LoopBlendOrientation: 0
    m_LoopBlendPositionY: 0
    m_LoopBlendPositionXZ: 0
    m_KeepOriginalOrientation: 0
    m_KeepOriginalPositionY: 1
    m_KeepOriginalPositionXZ: 0
    m_HeightFromFeet: 0
    m_Mirror: 0
  m_EditorCurves: []
  m_EulerEditorCurves: []
  m_HasGenericRootTransform: 0
  m_HasMotionFloatCurves: 0
  m_Events: []
